{
  "totalRecords" : 1128, 
  "recordsPerPage" : 200,
  "page" : 5,
  "nextPage" : "https://raw.githubusercontent.com/arcjsonapi/HoldingValueCalculator/master/paging/holding_end.json",
  "data" : [
    {"date" : "20190912", "security" : "XYZ Private Limited", "quantity" : 869, "portfolio" : "Growth"},
    {"date" : "20190912", "security" : "Arcesium LLC", "quantity" : 333, "portfolio" : "Balanced"},
    {"date" : "20190912", "security" : "XYZ Private Limited", "quantity" : 780, "portfolio" : "Technology"},
    {"date" : "20190912", "security" : "Arcesium LLC", "quantity" : 902, "portfolio" : "Balanced"},
    {"date" : "20190912", "security" : "Arcesium LLC", "quantity" : 692, "portfolio" : "Technology"},
    {"date" : "20190913", "security" : "Apples and Oranges", "quantity" : 994, "portfolio" : "Growth"},
    {"date" : "20190914", "security" : "ABC Corporation", "quantity" : 922, "portfolio" : "Growth"},
    {"date" : "20190914", "security" : "XYZ Private Limited", "quantity" : 26, "portfolio" : "Growth"},
    {"date" : "20190914", "security" : "Arcesium LLC", "quantity" : 860, "portfolio" : "Equity"},
    {"date" : "20190914", "security" : "Arcesium LLC", "quantity" : 307, "portfolio" : "Balanced"},
    {"date" : "20190915", "security" : "Apples and Oranges", "quantity" : 94, "portfolio" : "Growth"},
    {"date" : "20190916", "security" : "Apples and Oranges", "quantity" : 158, "portfolio" : "Technology"},
    {"date" : "20190917", "security" : "Apples and Oranges", "quantity" : 526, "portfolio" : "Technology"},
    {"date" : "20190917", "security" : "Apples and Oranges", "quantity" : 679, "portfolio" : "Balanced"},
    {"date" : "20190917", "security" : "ABC Corporation", "quantity" : 719, "portfolio" : "Balanced"},
    {"date" : "20190917", "security" : "Apples and Oranges", "quantity" : 366, "portfolio" : "Growth"},
    {"date" : "20190917", "security" : "Arcesium LLC", "quantity" : 75, "portfolio" : "Technology"},
    {"date" : "20190918", "security" : "Apples and Oranges", "quantity" : 139, "portfolio" : "Technology"},
    {"date" : "20190919", "security" : "Arcesium LLC", "quantity" : 51, "portfolio" : "Growth"},
    {"date" : "20190919", "security" : "Apples and Oranges", "quantity" : 314, "portfolio" : "Growth"},
    {"date" : "20190919", "security" : "Arcesium LLC", "quantity" : 487, "portfolio" : "Equity"},
    {"date" : "20190919", "security" : "XYZ Private Limited", "quantity" : 536, "portfolio" : "Balanced"},
    {"date" : "20190920", "security" : "XYZ Private Limited", "quantity" : 927, "portfolio" : "Equity"},
    {"date" : "20190920", "security" : "XYZ Private Limited", "quantity" : 819, "portfolio" : "Growth"},
    {"date" : "20190920", "security" : "XYZ Private Limited", "quantity" : 65, "portfolio" : "Equity"},
    {"date" : "20190921", "security" : "XYZ Private Limited", "quantity" : 742, "portfolio" : "Balanced"},
    {"date" : "20190922", "security" : "Apples and Oranges", "quantity" : 404, "portfolio" : "Balanced"},
    {"date" : "20190922", "security" : "ABC Corporation", "quantity" : 555, "portfolio" : "Technology"},
    {"date" : "20190922", "security" : "ABC Corporation", "quantity" : 625, "portfolio" : "Growth"},
    {"date" : "20190923", "security" : "Apples and Oranges", "quantity" : 125, "portfolio" : "Growth"},
    {"date" : "20190923", "security" : "ABC Corporation", "quantity" : 394, "portfolio" : "Balanced"},
    {"date" : "20190923", "security" : "XYZ Private Limited", "quantity" : 682, "portfolio" : "Technology"},
    {"date" : "20190923", "security" : "XYZ Private Limited", "quantity" : 497, "portfolio" : "Balanced"},
    {"date" : "20190923", "security" : "XYZ Private Limited", "quantity" : 209, "portfolio" : "Equity"},
    {"date" : "20190924", "security" : "ABC Corporation", "quantity" : 579, "portfolio" : "Growth"},
    {"date" : "20190924", "security" : "Apples and Oranges", "quantity" : 534, "portfolio" : "Growth"},
    {"date" : "20190925", "security" : "XYZ Private Limited", "quantity" : 175, "portfolio" : "Balanced"},
    {"date" : "20190925", "security" : "ABC Corporation", "quantity" : 468, "portfolio" : "Equity"},
    {"date" : "20190925", "security" : "XYZ Private Limited", "quantity" : 230, "portfolio" : "Technology"},
    {"date" : "20190925", "security" : "Arcesium LLC", "quantity" : 164, "portfolio" : "Technology"},
    {"date" : "20190925", "security" : "XYZ Private Limited", "quantity" : 349, "portfolio" : "Technology"},
    {"date" : "20190926", "security" : "ABC Corporation", "quantity" : 809, "portfolio" : "Technology"},
    {"date" : "20190926", "security" : "XYZ Private Limited", "quantity" : 876, "portfolio" : "Growth"},
    {"date" : "20190926", "security" : "ABC Corporation", "quantity" : 596, "portfolio" : "Technology"},
    {"date" : "20190926", "security" : "Apples and Oranges", "quantity" : 694, "portfolio" : "Growth"},
    {"date" : "20190927", "security" : "ABC Corporation", "quantity" : 502, "portfolio" : "Balanced"},
    {"date" : "20190927", "security" : "Apples and Oranges", "quantity" : 27, "portfolio" : "Balanced"},
    {"date" : "20190927", "security" : "XYZ Private Limited", "quantity" : 45, "portfolio" : "Balanced"},
    {"date" : "20190927", "security" : "Apples and Oranges", "quantity" : 444, "portfolio" : "Technology"},
    {"date" : "20190927", "security" : "Arcesium LLC", "quantity" : 852, "portfolio" : "Equity"},
    {"date" : "20190928", "security" : "Arcesium LLC", "quantity" : 578, "portfolio" : "Growth"},
    {"date" : "20190928", "security" : "ABC Corporation", "quantity" : 263, "portfolio" : "Balanced"},
    {"date" : "20190928", "security" : "Apples and Oranges", "quantity" : 959, "portfolio" : "Technology"},
    {"date" : "20190928", "security" : "Apples and Oranges", "quantity" : 993, "portfolio" : "Growth"},
    {"date" : "20190929", "security" : "ABC Corporation", "quantity" : 784, "portfolio" : "Technology"},
    {"date" : "20190929", "security" : "Apples and Oranges", "quantity" : 538, "portfolio" : "Equity"},
    {"date" : "20190930", "security" : "Apples and Oranges", "quantity" : 697, "portfolio" : "Equity"},
    {"date" : "20191001", "security" : "Arcesium LLC", "quantity" : 323, "portfolio" : "Equity"},
    {"date" : "20191001", "security" : "XYZ Private Limited", "quantity" : 502, "portfolio" : "Equity"},
    {"date" : "20191002", "security" : "Arcesium LLC", "quantity" : 994, "portfolio" : "Equity"},
    {"date" : "20191002", "security" : "XYZ Private Limited", "quantity" : 53, "portfolio" : "Technology"},
    {"date" : "20191002", "security" : "XYZ Private Limited", "quantity" : 455, "portfolio" : "Equity"},
    {"date" : "20191003", "security" : "ABC Corporation", "quantity" : 273, "portfolio" : "Growth"},
    {"date" : "20191003", "security" : "Arcesium LLC", "quantity" : 72, "portfolio" : "Equity"},
    {"date" : "20191003", "security" : "Apples and Oranges", "quantity" : 515, "portfolio" : "Equity"},
    {"date" : "20191003", "security" : "Arcesium LLC", "quantity" : 231, "portfolio" : "Balanced"},
    {"date" : "20191004", "security" : "Apples and Oranges", "quantity" : 722, "portfolio" : "Technology"},
    {"date" : "20191004", "security" : "Apples and Oranges", "quantity" : 731, "portfolio" : "Equity"},
    {"date" : "20191004", "security" : "ABC Corporation", "quantity" : 633, "portfolio" : "Technology"},
    {"date" : "20191004", "security" : "XYZ Private Limited", "quantity" : 98, "portfolio" : "Technology"},
    {"date" : "20191004", "security" : "Apples and Oranges", "quantity" : 129, "portfolio" : "Growth"},
    {"date" : "20191005", "security" : "ABC Corporation", "quantity" : 749, "portfolio" : "Growth"},
    {"date" : "20191005", "security" : "XYZ Private Limited", "quantity" : 176, "portfolio" : "Equity"},
    {"date" : "20191005", "security" : "XYZ Private Limited", "quantity" : 527, "portfolio" : "Balanced"},
    {"date" : "20191006", "security" : "ABC Corporation", "quantity" : 406, "portfolio" : "Equity"},
    {"date" : "20191006", "security" : "ABC Corporation", "quantity" : 931, "portfolio" : "Equity"},
    {"date" : "20191006", "security" : "ABC Corporation", "quantity" : 212, "portfolio" : "Balanced"},
    {"date" : "20191006", "security" : "ABC Corporation", "quantity" : 509, "portfolio" : "Equity"},
    {"date" : "20191006", "security" : "Arcesium LLC", "quantity" : 523, "portfolio" : "Equity"},
    {"date" : "20191007", "security" : "XYZ Private Limited", "quantity" : 613, "portfolio" : "Equity"},
    {"date" : "20191008", "security" : "ABC Corporation", "quantity" : 977, "portfolio" : "Growth"},
    {"date" : "20191009", "security" : "XYZ Private Limited", "quantity" : 902, "portfolio" : "Growth"},
    {"date" : "20191009", "security" : "Apples and Oranges", "quantity" : 921, "portfolio" : "Technology"},
    {"date" : "20191010", "security" : "XYZ Private Limited", "quantity" : 905, "portfolio" : "Equity"},
    {"date" : "20191010", "security" : "XYZ Private Limited", "quantity" : 979, "portfolio" : "Growth"},
    {"date" : "20191011", "security" : "Apples and Oranges", "quantity" : 994, "portfolio" : "Equity"},
    {"date" : "20191011", "security" : "Apples and Oranges", "quantity" : 153, "portfolio" : "Equity"},
    {"date" : "20191011", "security" : "Arcesium LLC", "quantity" : 771, "portfolio" : "Growth"},
    {"date" : "20191011", "security" : "Apples and Oranges", "quantity" : 18, "portfolio" : "Balanced"},
    {"date" : "20191012", "security" : "Apples and Oranges", "quantity" : 967, "portfolio" : "Growth"},
    {"date" : "20191013", "security" : "ABC Corporation", "quantity" : 743, "portfolio" : "Equity"},
    {"date" : "20191013", "security" : "XYZ Private Limited", "quantity" : 361, "portfolio" : "Technology"},
    {"date" : "20191013", "security" : "XYZ Private Limited", "quantity" : 747, "portfolio" : "Technology"},
    {"date" : "20191013", "security" : "ABC Corporation", "quantity" : 416, "portfolio" : "Growth"},
    {"date" : "20191013", "security" : "ABC Corporation", "quantity" : 815, "portfolio" : "Growth"},
    {"date" : "20191014", "security" : "Arcesium LLC", "quantity" : 861, "portfolio" : "Equity"},
    {"date" : "20191014", "security" : "ABC Corporation", "quantity" : 934, "portfolio" : "Growth"},
    {"date" : "20191014", "security" : "Apples and Oranges", "quantity" : 910, "portfolio" : "Equity"},
    {"date" : "20191015", "security" : "Arcesium LLC", "quantity" : 364, "portfolio" : "Technology"},
    {"date" : "20191015", "security" : "XYZ Private Limited", "quantity" : 960, "portfolio" : "Balanced"},
    {"date" : "20191015", "security" : "XYZ Private Limited", "quantity" : 684, "portfolio" : "Growth"},
    {"date" : "20191016", "security" : "Arcesium LLC", "quantity" : 748, "portfolio" : "Balanced"},
    {"date" : "20191016", "security" : "ABC Corporation", "quantity" : 815, "portfolio" : "Equity"},
    {"date" : "20191016", "security" : "XYZ Private Limited", "quantity" : 734, "portfolio" : "Equity"},
    {"date" : "20191016", "security" : "ABC Corporation", "quantity" : 26, "portfolio" : "Growth"},
    {"date" : "20191016", "security" : "XYZ Private Limited", "quantity" : 842, "portfolio" : "Growth"},
    {"date" : "20191017", "security" : "ABC Corporation", "quantity" : 962, "portfolio" : "Equity"},
    {"date" : "20191018", "security" : "XYZ Private Limited", "quantity" : 785, "portfolio" : "Growth"},
    {"date" : "20191018", "security" : "Arcesium LLC", "quantity" : 185, "portfolio" : "Technology"},
    {"date" : "20191018", "security" : "Apples and Oranges", "quantity" : 507, "portfolio" : "Growth"},
    {"date" : "20191019", "security" : "ABC Corporation", "quantity" : 641, "portfolio" : "Equity"},
    {"date" : "20191019", "security" : "XYZ Private Limited", "quantity" : 718, "portfolio" : "Balanced"},
    {"date" : "20191019", "security" : "XYZ Private Limited", "quantity" : 427, "portfolio" : "Growth"},
    {"date" : "20191020", "security" : "ABC Corporation", "quantity" : 296, "portfolio" : "Technology"},
    {"date" : "20191020", "security" : "Apples and Oranges", "quantity" : 257, "portfolio" : "Equity"},
    {"date" : "20191020", "security" : "XYZ Private Limited", "quantity" : 651, "portfolio" : "Growth"},
    {"date" : "20191020", "security" : "Apples and Oranges", "quantity" : 13, "portfolio" : "Technology"},
    {"date" : "20191021", "security" : "Arcesium LLC", "quantity" : 574, "portfolio" : "Equity"},
    {"date" : "20191021", "security" : "ABC Corporation", "quantity" : 571, "portfolio" : "Balanced"},
    {"date" : "20191022", "security" : "XYZ Private Limited", "quantity" : 295, "portfolio" : "Technology"},
    {"date" : "20191022", "security" : "Apples and Oranges", "quantity" : 566, "portfolio" : "Technology"},
    {"date" : "20191022", "security" : "ABC Corporation", "quantity" : 115, "portfolio" : "Technology"},
    {"date" : "20191022", "security" : "ABC Corporation", "quantity" : 345, "portfolio" : "Growth"},
    {"date" : "20191022", "security" : "XYZ Private Limited", "quantity" : 53, "portfolio" : "Equity"},
    {"date" : "20191023", "security" : "ABC Corporation", "quantity" : 606, "portfolio" : "Equity"},
    {"date" : "20191023", "security" : "Apples and Oranges", "quantity" : 524, "portfolio" : "Growth"},
    {"date" : "20191023", "security" : "Arcesium LLC", "quantity" : 304, "portfolio" : "Balanced"},
    {"date" : "20191024", "security" : "Apples and Oranges", "quantity" : 618, "portfolio" : "Technology"},
    {"date" : "20191024", "security" : "Arcesium LLC", "quantity" : 743, "portfolio" : "Technology"},
    {"date" : "20191024", "security" : "Arcesium LLC", "quantity" : 563, "portfolio" : "Technology"},
    {"date" : "20191024", "security" : "XYZ Private Limited", "quantity" : 960, "portfolio" : "Balanced"},
    {"date" : "20191025", "security" : "XYZ Private Limited", "quantity" : 31, "portfolio" : "Growth"},
    {"date" : "20191025", "security" : "XYZ Private Limited", "quantity" : 633, "portfolio" : "Equity"},
    {"date" : "20191026", "security" : "XYZ Private Limited", "quantity" : 649, "portfolio" : "Growth"},
    {"date" : "20191026", "security" : "Apples and Oranges", "quantity" : 240, "portfolio" : "Growth"},
    {"date" : "20191026", "security" : "Apples and Oranges", "quantity" : 318, "portfolio" : "Technology"},
    {"date" : "20191027", "security" : "Arcesium LLC", "quantity" : 805, "portfolio" : "Growth"},
    {"date" : "20191027", "security" : "XYZ Private Limited", "quantity" : 204, "portfolio" : "Balanced"},
    {"date" : "20191027", "security" : "Arcesium LLC", "quantity" : 796, "portfolio" : "Balanced"},
    {"date" : "20191027", "security" : "Arcesium LLC", "quantity" : 94, "portfolio" : "Equity"},
    {"date" : "20191028", "security" : "XYZ Private Limited", "quantity" : 402, "portfolio" : "Balanced"},
    {"date" : "20191029", "security" : "Arcesium LLC", "quantity" : 32, "portfolio" : "Balanced"},
    {"date" : "20191029", "security" : "XYZ Private Limited", "quantity" : 435, "portfolio" : "Growth"},
    {"date" : "20191029", "security" : "Apples and Oranges", "quantity" : 212, "portfolio" : "Equity"},
    {"date" : "20191029", "security" : "ABC Corporation", "quantity" : 911, "portfolio" : "Technology"},
    {"date" : "20191029", "security" : "Apples and Oranges", "quantity" : 637, "portfolio" : "Equity"},
    {"date" : "20191030", "security" : "ABC Corporation", "quantity" : 450, "portfolio" : "Equity"},
    {"date" : "20191030", "security" : "Arcesium LLC", "quantity" : 208, "portfolio" : "Equity"},
    {"date" : "20191030", "security" : "XYZ Private Limited", "quantity" : 873, "portfolio" : "Technology"},
    {"date" : "20191031", "security" : "ABC Corporation", "quantity" : 195, "portfolio" : "Technology"},
    {"date" : "20191031", "security" : "Arcesium LLC", "quantity" : 660, "portfolio" : "Equity"},
    {"date" : "20191031", "security" : "Arcesium LLC", "quantity" : 166, "portfolio" : "Balanced"},
    {"date" : "20191031", "security" : "XYZ Private Limited", "quantity" : 304, "portfolio" : "Growth"},
    {"date" : "20191101", "security" : "Arcesium LLC", "quantity" : 185, "portfolio" : "Balanced"},
    {"date" : "20191101", "security" : "Apples and Oranges", "quantity" : 54, "portfolio" : "Technology"},
    {"date" : "20191102", "security" : "ABC Corporation", "quantity" : 262, "portfolio" : "Equity"},
    {"date" : "20191102", "security" : "Arcesium LLC", "quantity" : 609, "portfolio" : "Equity"},
    {"date" : "20191102", "security" : "Apples and Oranges", "quantity" : 254, "portfolio" : "Growth"},
    {"date" : "20191102", "security" : "XYZ Private Limited", "quantity" : 662, "portfolio" : "Equity"},
    {"date" : "20191102", "security" : "ABC Corporation", "quantity" : 356, "portfolio" : "Equity"},
    {"date" : "20191103", "security" : "Apples and Oranges", "quantity" : 747, "portfolio" : "Equity"},
    {"date" : "20191103", "security" : "Arcesium LLC", "quantity" : 508, "portfolio" : "Equity"},
    {"date" : "20191103", "security" : "Apples and Oranges", "quantity" : 341, "portfolio" : "Technology"},
    {"date" : "20191103", "security" : "XYZ Private Limited", "quantity" : 770, "portfolio" : "Balanced"},
    {"date" : "20191104", "security" : "XYZ Private Limited", "quantity" : 995, "portfolio" : "Growth"},
    {"date" : "20191105", "security" : "Arcesium LLC", "quantity" : 589, "portfolio" : "Technology"},
    {"date" : "20191105", "security" : "ABC Corporation", "quantity" : 22, "portfolio" : "Equity"},
    {"date" : "20191106", "security" : "Apples and Oranges", "quantity" : 833, "portfolio" : "Equity"},
    {"date" : "20191106", "security" : "ABC Corporation", "quantity" : 743, "portfolio" : "Technology"},
    {"date" : "20191106", "security" : "ABC Corporation", "quantity" : 580, "portfolio" : "Equity"},
    {"date" : "20191106", "security" : "Arcesium LLC", "quantity" : 270, "portfolio" : "Technology"},
    {"date" : "20191107", "security" : "XYZ Private Limited", "quantity" : 594, "portfolio" : "Growth"},
    {"date" : "20191107", "security" : "Apples and Oranges", "quantity" : 202, "portfolio" : "Balanced"},
    {"date" : "20191108", "security" : "Arcesium LLC", "quantity" : 593, "portfolio" : "Technology"},
    {"date" : "20191108", "security" : "Apples and Oranges", "quantity" : 791, "portfolio" : "Equity"},
    {"date" : "20191108", "security" : "XYZ Private Limited", "quantity" : 42, "portfolio" : "Growth"},
    {"date" : "20191108", "security" : "XYZ Private Limited", "quantity" : 432, "portfolio" : "Technology"},
    {"date" : "20191108", "security" : "Arcesium LLC", "quantity" : 69, "portfolio" : "Balanced"},
    {"date" : "20191109", "security" : "Arcesium LLC", "quantity" : 679, "portfolio" : "Equity"},
    {"date" : "20191109", "security" : "ABC Corporation", "quantity" : 754, "portfolio" : "Growth"},
    {"date" : "20191109", "security" : "Apples and Oranges", "quantity" : 650, "portfolio" : "Balanced"},
    {"date" : "20191109", "security" : "Apples and Oranges", "quantity" : 218, "portfolio" : "Growth"},
    {"date" : "20191110", "security" : "Arcesium LLC", "quantity" : 749, "portfolio" : "Balanced"},
    {"date" : "20191111", "security" : "Arcesium LLC", "quantity" : 163, "portfolio" : "Equity"},
    {"date" : "20191111", "security" : "XYZ Private Limited", "quantity" : 21, "portfolio" : "Growth"},
    {"date" : "20191112", "security" : "ABC Corporation", "quantity" : 493, "portfolio" : "Equity"},
    {"date" : "20191112", "security" : "Apples and Oranges", "quantity" : 583, "portfolio" : "Balanced"},
    {"date" : "20191112", "security" : "Arcesium LLC", "quantity" : 537, "portfolio" : "Technology"},
    {"date" : "20191112", "security" : "Arcesium LLC", "quantity" : 230, "portfolio" : "Balanced"},
    {"date" : "20191113", "security" : "Apples and Oranges", "quantity" : 368, "portfolio" : "Balanced"},
    {"date" : "20191114", "security" : "Apples and Oranges", "quantity" : 99, "portfolio" : "Growth"},
    {"date" : "20191115", "security" : "Apples and Oranges", "quantity" : 43, "portfolio" : "Equity"},
    {"date" : "20191115", "security" : "XYZ Private Limited", "quantity" : 47, "portfolio" : "Growth"},
    {"date" : "20191115", "security" : "ABC Corporation", "quantity" : 972, "portfolio" : "Equity"},
    {"date" : "20191116", "security" : "Arcesium LLC", "quantity" : 302, "portfolio" : "Growth"},
    {"date" : "20191116", "security" : "Arcesium LLC", "quantity" : 637, "portfolio" : "Technology"},
    {"date" : "20191116", "security" : "XYZ Private Limited", "quantity" : 658, "portfolio" : "Technology"},
    {"date" : "20191116", "security" : "Apples and Oranges", "quantity" : 629, "portfolio" : "Balanced"},
    {"date" : "20191117", "security" : "Apples and Oranges", "quantity" : 553, "portfolio" : "Equity"},
    {"date" : "20191117", "security" : "Arcesium LLC", "quantity" : 343, "portfolio" : "Growth"}
  ]
}
